<?xml version="1.0" encoding="utf-8"?>

<!--
 ~   Copyright 2017, WSO2 Inc. (http://www.wso2.com)
 ~
 ~   Licensed under the Apache License, Version 2.0 (the "License");
 ~   you may not use this file except in compliance with the License.
 ~   You may obtain a copy of the License at
 ~
 ~        http://www.apache.org/licenses/LICENSE-2.0
 ~
 ~   Unless required by applicable law or agreed to in writing, software
 ~   distributed under the License is distributed on an "AS IS" BASIS,
 ~   WITHOUT WARRANTIES OR CONDITIONS OF ANY KIND, either express or implied.
 ~   See the License for the specific language governing permissions and
 ~   limitations under the License.
-->
<svg version="1.1" id="kiosk" xmlns="http://www.w3.org/2000/svg" xmlns:xlink="http://www.w3.org/1999/xlink"
     x="0px" y="0px" viewBox="0 0 14 14" style="enable-background:new 0 0 14 14;" xml:space="preserve">

    <path d="M2.39956,6.05855H9.06388l.00049-.09869H2.39621c.05717-.186.08435-.309.13181-.42361C3.24423,
    3.80664,3.96651,2.07953,4.67717.34765c.09191-.224.19319-.349.46264-.34764,2.06511.01,4.13029.0056,
    6.19545.007.06632,0,.13263.01416.31311.03473a6.04568,6.04568,0,0,1-.20245,1.12022c-.69184,1.81118-1.421,
    3.60806-2.12254,5.4156a.53046.53046,0,0,1-.58844.40091c-1.876-.01829-3.7523-.00886-5.6285-.00886C2.295,
    6.96958,2.295,6.96956,2.39956,6.05855Zm.87378-.72541c1.80811,0,3.54654.00513,5.28476-.01185a.48677.48677,
    0,0,0,.327-.26824c.27431-.61394.51983-1.24072.77705-1.86233.34322-.82943.688-1.65823,1.05892-2.552h-.49545C9.02551.6387,
    7.82535.63622,6.6252.64,6.16774.64137,5.59927.49473,5.28341.71084c-.33055.22616-.42924.80256-.61009,
    1.23392C4.211,3.0474,3.75944,4.15451,3.27334,5.33314Z M8.13175,12.9307H5.16687l-.03206-.10018c.42467-.34329.84452-.6928,
    1.27644-1.02671a.414.414,0,0,0,.18436-.46835C6.36178,9.95967,6.157,8.57894,5.93542,7.15477H8.84707c.10342.607.21624,
    1.23622.31674,1.86738.12462.78266.247,1.56589.35035,2.35151a1.33324,1.33324,0,0,1-.09648.43589Z M8.24525,
    13.01075c.42864-.37372.79415-.77562,1.22279-1.14934.32217.18655.20254.44582.04858.63327-.38466.46835-.7987.91373-1.22029,
    1.34962a.602.602,0,0,1-.39115.14025c-.809.01262-1.61884-.01235-2.42709.01484-.36037.01213-.39842-.15815-.38592-.43844.0115-.25785-.044-.50858.37507-.49228.76753.02987,
    1.53711.013,2.30571.0041A2.5531,2.5531,0,0,0,8.24525,13.01075Z M4.53317,4.4171c.2897-.727.57587-1.447.86347-2.1664.34211-.85579.34264-.85559,1.27762-.85557.79425,
    0,1.58851-.00131,2.38275.00137.14284.00048.28562.01754.49647.03143-.1832.46162-.34393.86817-.50586,1.27425-.19894.49891-.38712,1.0027-.60684,
    1.49232a.48726.48726,0,0,1-.3222.27065c-1.14385.01786-2.28813.00844-3.43228.00441A.66332.66332,0,0,1,4.53317,4.4171Z"/>

</svg>